<?xml version="1.0" encoding="UTF-8"?>
<svg width="128px" height="128px" viewBox="0 0 128 128" version="1.1" xmlns="http://www.w3.org/2000/svg" xmlns:xlink="http://www.w3.org/1999/xlink">
    <!-- Generator: Sketch 47.1 (45422) - http://www.bohemiancoding.com/sketch -->
    <title>arrow_down</title>
    <desc>Created with Sketch.</desc>
    <defs></defs>
    <g id="Page-1" stroke="none" stroke-width="1" fill="none" fill-rule="evenodd">
        <g id="arrow_down" fill="#A99199">
            <path d="M60.8574547,100.009466 L6.09886908,30.4747544 L6.09886908,30.4747544 C4.73209997,28.7391746 5.03108013,26.2242239 6.76665995,24.8574547 C7.47197917,24.3020159 8.34364624,24 9.24141434,24 L118.758586,24 L118.758586,24 C120.967725,24 122.758586,25.790861 122.758586,28 C122.758586,28.8977681 122.45657,29.7694352 121.901131,30.4747544 L67.1425453,100.009466 L67.1425453,100.009466 C65.7757761,101.745046 63.2608254,102.044026 61.5252456,100.677257 C61.2770599,100.481811 61.052901,100.257652 60.8574547,100.009466 Z" id="Triangle"></path>
        </g>
    </g>
</svg>