<?xml version="1.0" encoding="UTF-8"?>
<svg width="128px" height="128px" viewBox="0 0 128 128" version="1.1" xmlns="http://www.w3.org/2000/svg" xmlns:xlink="http://www.w3.org/1999/xlink">
    <!-- Generator: Sketch 47.1 (45422) - http://www.bohemiancoding.com/sketch -->
    <title>heart_white</title>
    <desc>Created with Sketch.</desc>
    <defs></defs>
    <g id="Page-1" stroke="none" stroke-width="1" fill="none" fill-rule="evenodd">
        <g id="heart_white" fill="#FFFFFF">
            <path d="M94.9277,9 C78.7697,9 65.4957,21.73 63.9997,38.002 C62.5037,21.73 49.2307,9 33.0727,9 C15.9107,9 1.9997,22.358 1.9997,41.069 C1.9997,71.32 63.9997,119 63.9997,119 C63.9997,119 125.9997,71.32 125.9997,41.069 C125.9997,22.358 112.0877,9 94.9277,9" id="Fill-1"></path>
        </g>
    </g>
</svg>