<?xml version="1.0" encoding="UTF-8"?>
<svg width="128px" height="128px" viewBox="0 0 128 128" version="1.1" xmlns="http://www.w3.org/2000/svg" xmlns:xlink="http://www.w3.org/1999/xlink">
    <!-- Generator: Sketch 47.1 (45422) - http://www.bohemiancoding.com/sketch -->
    <title>heart_outline</title>
    <desc>Created with Sketch.</desc>
    <defs></defs>
    <g id="Page-1" stroke="none" stroke-width="1" fill="none" fill-rule="evenodd">
        <g id="heart_outline" fill-rule="nonzero" fill="#D01151">
            <path d="M34.0394687,9 C16.0084993,9 2,23.0260624 2,41.723464 C2,49.4555993 5.86978442,58.4636757 12.9549666,68.5543992 C18.0623448,75.8283324 24.7313891,83.502826 32.5899172,91.3957035 C39.2024283,98.0371178 46.2814448,104.462158 53.3601138,110.430292 C55.8376638,112.519152 58.1388864,114.402258 60.2052702,116.049254 C60.9296149,116.626587 61.5732427,117.13345 62.1288346,117.566041 C62.4639931,117.827 62.6964476,118.006058 62.818877,118.099408 L64,119 L65.181123,118.099408 C65.3035524,118.006058 65.5360069,117.827 65.8711654,117.566041 C66.4267573,117.13345 67.0703851,116.626587 67.7947298,116.049254 C69.8611136,114.402258 72.1623362,112.519152 74.6398862,110.430292 C81.7185552,104.462158 88.7975717,98.0371178 95.4100828,91.3957035 C103.268611,83.502826 109.937655,75.8283324 115.045033,68.5543992 C122.130216,58.4636757 126,49.4555993 126,41.723464 C126,23.0265474 111.991016,9 93.9615,9 L93.9615,12.8420222 C109.842366,12.8420222 122.125,25.1400552 122.125,41.723464 C122.125,48.5063884 118.539023,56.8538189 111.864802,66.3592512 C106.898841,73.4317774 100.367765,80.947502 92.6524172,88.6965736 C86.1262564,95.2512601 79.1281245,101.602888 72.1296451,107.503413 C69.6801931,109.568583 67.4063425,111.429291 65.3668913,113.05482 C64.8715051,113.449663 64.4150524,113.810564 64,114.136235 C63.5849476,113.810564 63.1284949,113.449663 62.6331087,113.05482 C60.5936575,111.429291 58.3198069,109.568583 55.8703549,107.503413 C48.8718755,101.602888 41.8737436,95.2512601 35.3475828,88.6965736 C27.6322349,80.947502 21.101159,73.4317774 16.1351983,66.3592512 C9.46097723,56.8538189 5.875,48.5063884 5.875,41.723464 C5.875,25.1395702 18.1571493,12.8420222 34.0394687,12.8420222 C48.5748916,12.8420222 60.7021075,24.194645 62.0706367,38.9534638 L65.9293633,38.9534638 C67.2978724,24.1948617 79.4258686,12.8420222 93.9615,12.8420222 L93.9615,9 C80.336332,9 68.6005788,17.720488 64.0000429,30.1114187 C59.3997151,17.7203963 47.6645215,9 34.0394687,9 Z" id="Fill-1"></path>
        </g>
    </g>
</svg>